{
  "page": 1,
  "per_page": 15,
  "photos": [
    {
      "id": 29893440,
      "width": 4732,
      "height": 3155,
      "url": "https://www.pexels.com/photo/delicious-berry-topped-waffles-on-breakfast-table-29893440/",
      "photographer": "Eugenia Sol",
      "photographer_url": "https://www.pexels.com/@eugenia-sol-1769194548",
      "photographer_id": 1769194548,
      "avg_color": "#BDA58D",
      "src": {
        "original": "https://images.pexels.com/photos/29893440/pexels-photo-29893440.jpeg",
        "large2x": "https://images.pexels.com/photos/29893440/pexels-photo-29893440.jpeg?auto=compress\u0026cs=tinysrgb\u0026dpr=2\u0026h=650\u0026w=940",
        "large": "https://images.pexels.com/photos/29893440/pexels-photo-29893440.jpeg?auto=compress\u0026cs=tinysrgb\u0026h=650\u0026w=940",
        "medium": "https://images.pexels.com/photos/29893440/pexels-photo-29893440.jpeg?auto=compress\u0026cs=tinysrgb\u0026h=350",
        "small": "https://images.pexels.com/photos/29893440/pexels-photo-29893440.jpeg?auto=compress\u0026cs=tinysrgb\u0026h=130",
        "portrait": "https://images.pexels.com/photos/29893440/pexels-photo-29893440.jpeg?auto=compress\u0026cs=tinysrgb\u0026fit=crop\u0026h=1200\u0026w=800",
        "landscape": "https://images.pexels.com/photos/29893440/pexels-photo-29893440.jpeg?auto=compress\u0026cs=tinysrgb\u0026fit=crop\u0026h=627\u0026w=1200",
        "tiny": "https://images.pexels.com/photos/29893440/pexels-photo-29893440.jpeg?auto=compress\u0026cs=tinysrgb\u0026dpr=1\u0026fit=crop\u0026h=200\u0026w=280"
      },
      "liked": false,
      "alt": ""
    },
    {
      "id": 29866939,
      "width": 3456,
      "height": 5184,
      "url": "https://www.pexels.com/photo/cozy-chair-with-coffee-and-decorative-pillow-29866939/",
      "photographer": "Sedanur Kunuk",
      "photographer_url": "https://www.pexels.com/@sedanur-kunuk-78972032",
      "photographer_id": 78972032,
      "avg_color": "#786443",
      "src": {
        "original": "https://images.pexels.com/photos/29866939/pexels-photo-29866939.jpeg",
        "large2x": "https://images.pexels.com/photos/29866939/pexels-photo-29866939.jpeg?auto=compress\u0026cs=tinysrgb\u0026dpr=2\u0026h=650\u0026w=940",
        "large": "https://images.pexels.com/photos/29866939/pexels-photo-29866939.jpeg?auto=compress\u0026cs=tinysrgb\u0026h=650\u0026w=940",
        "medium": "https://images.pexels.com/photos/29866939/pexels-photo-29866939.jpeg?auto=compress\u0026cs=tinysrgb\u0026h=350",
        "small": "https://images.pexels.com/photos/29866939/pexels-photo-29866939.jpeg?auto=compress\u0026cs=tinysrgb\u0026h=130",
        "portrait": "https://images.pexels.com/photos/29866939/pexels-photo-29866939.jpeg?auto=compress\u0026cs=tinysrgb\u0026fit=crop\u0026h=1200\u0026w=800",
        "landscape": "https://images.pexels.com/photos/29866939/pexels-photo-29866939.jpeg?auto=compress\u0026cs=tinysrgb\u0026fit=crop\u0026h=627\u0026w=1200",
        "tiny": "https://images.pexels.com/photos/29866939/pexels-photo-29866939.jpeg?auto=compress\u0026cs=tinysrgb\u0026dpr=1\u0026fit=crop\u0026h=200\u0026w=280"
      },
      "liked": false,
      "alt": "Sunlit cozy chair with decorative pillow and coffee cup, creating a warm and inviting atmosphere."
    },
    {
      "id": 29874884,
      "width": 4000,
      "height": 5983,
      "url": "https://www.pexels.com/photo/australian-shepherd-by-christmas-tree-29874884/",
      "photographer": "Gantas Vaičiulėnas",
      "photographer_url": "https://www.pexels.com/@gantas",
      "photographer_id": 900566,
      "avg_color": "#4B4839",
      "src": {
        "original": "https://images.pexels.com/photos/29874884/pexels-photo-29874884.jpeg",
        "large2x": "https://images.pexels.com/photos/29874884/pexels-photo-29874884.jpeg?auto=compress\u0026cs=tinysrgb\u0026dpr=2\u0026h=650\u0026w=940",
        "large": "https://images.pexels.com/photos/29874884/pexels-photo-29874884.jpeg?auto=compress\u0026cs=tinysrgb\u0026h=650\u0026w=940",
        "medium": "https://images.pexels.com/photos/29874884/pexels-photo-29874884.jpeg?auto=compress\u0026cs=tinysrgb\u0026h=350",
        "small": "https://images.pexels.com/photos/29874884/pexels-photo-29874884.jpeg?auto=compress\u0026cs=tinysrgb\u0026h=130",
        "portrait": "https://images.pexels.com/photos/29874884/pexels-photo-29874884.jpeg?auto=compress\u0026cs=tinysrgb\u0026fit=crop\u0026h=1200\u0026w=800",
        "landscape": "https://images.pexels.com/photos/29874884/pexels-photo-29874884.jpeg?auto=compress\u0026cs=tinysrgb\u0026fit=crop\u0026h=627\u0026w=1200",
        "tiny": "https://images.pexels.com/photos/29874884/pexels-photo-29874884.jpeg?auto=compress\u0026cs=tinysrgb\u0026dpr=1\u0026fit=crop\u0026h=200\u0026w=280"
      },
      "liked": false,
      "alt": ""
    },
    {
      "id": 29870472,
      "width": 5212,
      "height": 3475,
      "url": "https://www.pexels.com/photo/scenic-winter-view-of-a-mountain-village-by-a-lake-29870472/",
      "photographer": "Magda Ehlers",
      "photographer_url": "https://www.pexels.com/@magda-ehlers-pexels",
      "photographer_id": 102775,
      "avg_color": "#908D88",
      "src": {
        "original": "https://images.pexels.com/photos/29870472/pexels-photo-29870472.jpeg",
        "large2x": "https://images.pexels.com/photos/29870472/pexels-photo-29870472.jpeg?auto=compress\u0026cs=tinysrgb\u0026dpr=2\u0026h=650\u0026w=940",
        "large": "https://images.pexels.com/photos/29870472/pexels-photo-29870472.jpeg?auto=compress\u0026cs=tinysrgb\u0026h=650\u0026w=940",
        "medium": "https://images.pexels.com/photos/29870472/pexels-photo-29870472.jpeg?auto=compress\u0026cs=tinysrgb\u0026h=350",
        "small": "https://images.pexels.com/photos/29870472/pexels-photo-29870472.jpeg?auto=compress\u0026cs=tinysrgb\u0026h=130",
        "portrait": "https://images.pexels.com/photos/29870472/pexels-photo-29870472.jpeg?auto=compress\u0026cs=tinysrgb\u0026fit=crop\u0026h=1200\u0026w=800",
        "landscape": "https://images.pexels.com/photos/29870472/pexels-photo-29870472.jpeg?auto=compress\u0026cs=tinysrgb\u0026fit=crop\u0026h=627\u0026w=1200",
        "tiny": "https://images.pexels.com/photos/29870472/pexels-photo-29870472.jpeg?auto=compress\u0026cs=tinysrgb\u0026dpr=1\u0026fit=crop\u0026h=200\u0026w=280"
      },
      "liked": false,
      "alt": "Free stock photo of famous village, mountain huts, mountain village"
    },
    {
      "id": 29864194,
      "width": 4160,
      "height": 6240,
      "url": "https://www.pexels.com/photo/festive-holiday-cake-slice-with-candlelight-29864194/",
      "photographer": "Nati",
      "photographer_url": "https://www.pexels.com/@nati-87264186",
      "photographer_id": 87264186,
      "avg_color": "#615B4F",
      "src": {
        "original": "https://images.pexels.com/photos/29864194/pexels-photo-29864194.jpeg",
        "large2x": "https://images.pexels.com/photos/29864194/pexels-photo-29864194.jpeg?auto=compress\u0026cs=tinysrgb\u0026dpr=2\u0026h=650\u0026w=940",
        "large": "https://images.pexels.com/photos/29864194/pexels-photo-29864194.jpeg?auto=compress\u0026cs=tinysrgb\u0026h=650\u0026w=940",
        "medium": "https://images.pexels.com/photos/29864194/pexels-photo-29864194.jpeg?auto=compress\u0026cs=tinysrgb\u0026h=350",
        "small": "https://images.pexels.com/photos/29864194/pexels-photo-29864194.jpeg?auto=compress\u0026cs=tinysrgb\u0026h=130",
        "portrait": "https://images.pexels.com/photos/29864194/pexels-photo-29864194.jpeg?auto=compress\u0026cs=tinysrgb\u0026fit=crop\u0026h=1200\u0026w=800",
        "landscape": "https://images.pexels.com/photos/29864194/pexels-photo-29864194.jpeg?auto=compress\u0026cs=tinysrgb\u0026fit=crop\u0026h=627\u0026w=1200",
        "tiny": "https://images.pexels.com/photos/29864194/pexels-photo-29864194.jpeg?auto=compress\u0026cs=tinysrgb\u0026dpr=1\u0026fit=crop\u0026h=200\u0026w=280"
      },
      "liked": false,
      "alt": "A piece of chocolate cake on a festive holiday table with greenery and candlelight."
    },
    {
      "id": 29851687,
      "width": 2880,
      "height": 4320,
      "url": "https://www.pexels.com/photo/artisanal-dessert-with-sparkling-cupcakes-29851687/",
      "photographer": "Prolific  People Co",
      "photographer_url": "https://www.pexels.com/@prolificpeople",
      "photographer_id": 279979684,
      "avg_color": "#827F78",
      "src": {
        "original": "https://images.pexels.com/photos/29851687/pexels-photo-29851687.jpeg",
        "large2x": "https://images.pexels.com/photos/29851687/pexels-photo-29851687.jpeg?auto=compress\u0026cs=tinysrgb\u0026dpr=2\u0026h=650\u0026w=940",
        "large": "https://images.pexels.com/photos/29851687/pexels-photo-29851687.jpeg?auto=compress\u0026cs=tinysrgb\u0026h=650\u0026w=940",
        "medium": "https://images.pexels.com/photos/29851687/pexels-photo-29851687.jpeg?auto=compress\u0026cs=tinysrgb\u0026h=350",
        "small": "https://images.pexels.com/photos/29851687/pexels-photo-29851687.jpeg?auto=compress\u0026cs=tinysrgb\u0026h=130",
        "portrait": "https://images.pexels.com/photos/29851687/pexels-photo-29851687.jpeg?auto=compress\u0026cs=tinysrgb\u0026fit=crop\u0026h=1200\u0026w=800",
        "landscape": "https://images.pexels.com/photos/29851687/pexels-photo-29851687.jpeg?auto=compress\u0026cs=tinysrgb\u0026fit=crop\u0026h=627\u0026w=1200",
        "tiny": "https://images.pexels.com/photos/29851687/pexels-photo-29851687.jpeg?auto=compress\u0026cs=tinysrgb\u0026dpr=1\u0026fit=crop\u0026h=200\u0026w=280"
      },
      "liked": false,
      "alt": "Artisan Birthday Cake Ice cream with sparkling candles on cupcakes and cookies"
    },
    {
      "id": 29851909,
      "width": 3072,
      "height": 4608,
      "url": "https://www.pexels.com/photo/woman-petting-a-cat-by-the-seaside-at-sunset-29851909/",
      "photographer": "Ömer Derinyar",
      "photographer_url": "https://www.pexels.com/@omerderinyar",
      "photographer_id": 84746195,
      "avg_color": "#807B77",
      "src": {
        "original": "https://images.pexels.com/photos/29851909/pexels-photo-29851909.jpeg",
        "large2x": "https://images.pexels.com/photos/29851909/pexels-photo-29851909.jpeg?auto=compress\u0026cs=tinysrgb\u0026dpr=2\u0026h=650\u0026w=940",
        "large": "https://images.pexels.com/photos/29851909/pexels-photo-29851909.jpeg?auto=compress\u0026cs=tinysrgb\u0026h=650\u0026w=940",
        "medium": "https://images.pexels.com/photos/29851909/pexels-photo-29851909.jpeg?auto=compress\u0026cs=tinysrgb\u0026h=350",
        "small": "https://images.pexels.com/photos/29851909/pexels-photo-29851909.jpeg?auto=compress\u0026cs=tinysrgb\u0026h=130",
        "portrait": "https://images.pexels.com/photos/29851909/pexels-photo-29851909.jpeg?auto=compress\u0026cs=tinysrgb\u0026fit=crop\u0026h=1200\u0026w=800",
        "landscape": "https://images.pexels.com/photos/29851909/pexels-photo-29851909.jpeg?auto=compress\u0026cs=tinysrgb\u0026fit=crop\u0026h=627\u0026w=1200",
        "tiny": "https://images.pexels.com/photos/29851909/pexels-photo-29851909.jpeg?auto=compress\u0026cs=tinysrgb\u0026dpr=1\u0026fit=crop\u0026h=200\u0026w=280"
      },
      "liked": false,
      "alt": "A woman crouched by a cat at the seaside during sunset, creating a warm, serene atmosphere."
    },
    {
      "id": 29851554,
      "width": 4000,
      "height": 6000,
      "url": "https://www.pexels.com/photo/colorful-facades-in-provence-alpes-cote-d-azur-29851554/",
      "photographer": "AXP Photography",
      "photographer_url": "https://www.pexels.com/@axp-photography-500641970",
      "photographer_id": 500641970,
      "avg_color": "#A8895A",
      "src": {
        "original": "https://images.pexels.com/photos/29851554/pexels-photo-29851554.jpeg",
        "large2x": "https://images.pexels.com/photos/29851554/pexels-photo-29851554.jpeg?auto=compress\u0026cs=tinysrgb\u0026dpr=2\u0026h=650\u0026w=940",
        "large": "https://images.pexels.com/photos/29851554/pexels-photo-29851554.jpeg?auto=compress\u0026cs=tinysrgb\u0026h=650\u0026w=940",
        "medium": "https://images.pexels.com/photos/29851554/pexels-photo-29851554.jpeg?auto=compress\u0026cs=tinysrgb\u0026h=350",
        "small": "https://images.pexels.com/photos/29851554/pexels-photo-29851554.jpeg?auto=compress\u0026cs=tinysrgb\u0026h=130",
        "portrait": "https://images.pexels.com/photos/29851554/pexels-photo-29851554.jpeg?auto=compress\u0026cs=tinysrgb\u0026fit=crop\u0026h=1200\u0026w=800",
        "landscape": "https://images.pexels.com/photos/29851554/pexels-photo-29851554.jpeg?auto=compress\u0026cs=tinysrgb\u0026fit=crop\u0026h=627\u0026w=1200",
        "tiny": "https://images.pexels.com/photos/29851554/pexels-photo-29851554.jpeg?auto=compress\u0026cs=tinysrgb\u0026dpr=1\u0026fit=crop\u0026h=200\u0026w=280"
      },
      "liked": false,
      "alt": "Free stock photo of bormes les mimosas, europe, france"
    },
    {
      "id": 29846283,
      "width": 2401,
      "height": 3002,
      "url": "https://www.pexels.com/photo/stylish-woman-sitting-by-red-rustic-doorway-29846283/",
      "photographer": "Ario Stories",
      "photographer_url": "https://www.pexels.com/@ario-stories-278509849",
      "photographer_id": 278509849,
      "avg_color": "#7F4834",
      "src": {
        "original": "https://images.pexels.com/photos/29846283/pexels-photo-29846283.jpeg",
        "large2x": "https://images.pexels.com/photos/29846283/pexels-photo-29846283.jpeg?auto=compress\u0026cs=tinysrgb\u0026dpr=2\u0026h=650\u0026w=940",
        "large": "https://images.pexels.com/photos/29846283/pexels-photo-29846283.jpeg?auto=compress\u0026cs=tinysrgb\u0026h=650\u0026w=940",
        "medium": "https://images.pexels.com/photos/29846283/pexels-photo-29846283.jpeg?auto=compress\u0026cs=tinysrgb\u0026h=350",
        "small": "https://images.pexels.com/photos/29846283/pexels-photo-29846283.jpeg?auto=compress\u0026cs=tinysrgb\u0026h=130",
        "portrait": "https://images.pexels.com/photos/29846283/pexels-photo-29846283.jpeg?auto=compress\u0026cs=tinysrgb\u0026fit=crop\u0026h=1200\u0026w=800",
        "landscape": "https://images.pexels.com/photos/29846283/pexels-photo-29846283.jpeg?auto=compress\u0026cs=tinysrgb\u0026fit=crop\u0026h=627\u0026w=1200",
        "tiny": "https://images.pexels.com/photos/29846283/pexels-photo-29846283.jpeg?auto=compress\u0026cs=tinysrgb\u0026dpr=1\u0026fit=crop\u0026h=200\u0026w=280"
      },
      "liked": false,
      "alt": ""
    },
    {
      "id": 29846980,
      "width": 4000,
      "height": 6000,
      "url": "https://www.pexels.com/photo/elegant-portrait-of-woman-with-lily-bouquet-29846980/",
      "photographer": "Huy Nguyễn",
      "photographer_url": "https://www.pexels.com/@huy-nguy-n-1640325753",
      "photographer_id": 1640325753,
      "avg_color": "#3B2A23",
      "src": {
        "original": "https://images.pexels.com/photos/29846980/pexels-photo-29846980.jpeg",
        "large2x": "https://images.pexels.com/photos/29846980/pexels-photo-29846980.jpeg?auto=compress\u0026cs=tinysrgb\u0026dpr=2\u0026h=650\u0026w=940",
        "large": "https://images.pexels.com/photos/29846980/pexels-photo-29846980.jpeg?auto=compress\u0026cs=tinysrgb\u0026h=650\u0026w=940",
        "medium": "https://images.pexels.com/photos/29846980/pexels-photo-29846980.jpeg?auto=compress\u0026cs=tinysrgb\u0026h=350",
        "small": "https://images.pexels.com/photos/29846980/pexels-photo-29846980.jpeg?auto=compress\u0026cs=tinysrgb\u0026h=130",
        "portrait": "https://images.pexels.com/photos/29846980/pexels-photo-29846980.jpeg?auto=compress\u0026cs=tinysrgb\u0026fit=crop\u0026h=1200\u0026w=800",
        "landscape": "https://images.pexels.com/photos/29846980/pexels-photo-29846980.jpeg?auto=compress\u0026cs=tinysrgb\u0026fit=crop\u0026h=627\u0026w=1200",
        "tiny": "https://images.pexels.com/photos/29846980/pexels-photo-29846980.jpeg?auto=compress\u0026cs=tinysrgb\u0026dpr=1\u0026fit=crop\u0026h=200\u0026w=280"
      },
      "liked": false,
      "alt": "Woman in red with lilies on a classical indoor set, conveying elegance and calm."
    },
    {
      "id": 29819373,
      "width": 6056,
      "height": 4084,
      "url": "https://www.pexels.com/photo/vibrant-red-tulips-blooming-in-spring-garden-29819373/",
      "photographer": "Mustafa  Fatemi",
      "photographer_url": "https://www.pexels.com/@mustafa-fatemi-383794430",
      "photographer_id": 383794430,
      "avg_color": "#7E646D",
      "src": {
        "original": "https://images.pexels.com/photos/29819373/pexels-photo-29819373.jpeg",
        "large2x": "https://images.pexels.com/photos/29819373/pexels-photo-29819373.jpeg?auto=compress\u0026cs=tinysrgb\u0026dpr=2\u0026h=650\u0026w=940",
        "large": "https://images.pexels.com/photos/29819373/pexels-photo-29819373.jpeg?auto=compress\u0026cs=tinysrgb\u0026h=650\u0026w=940",
        "medium": "https://images.pexels.com/photos/29819373/pexels-photo-29819373.jpeg?auto=compress\u0026cs=tinysrgb\u0026h=350",
        "small": "https://images.pexels.com/photos/29819373/pexels-photo-29819373.jpeg?auto=compress\u0026cs=tinysrgb\u0026h=130",
        "portrait": "https://images.pexels.com/photos/29819373/pexels-photo-29819373.jpeg?auto=compress\u0026cs=tinysrgb\u0026fit=crop\u0026h=1200\u0026w=800",
        "landscape": "https://images.pexels.com/photos/29819373/pexels-photo-29819373.jpeg?auto=compress\u0026cs=tinysrgb\u0026fit=crop\u0026h=627\u0026w=1200",
        "tiny": "https://images.pexels.com/photos/29819373/pexels-photo-29819373.jpeg?auto=compress\u0026cs=tinysrgb\u0026dpr=1\u0026fit=crop\u0026h=200\u0026w=280"
      },
      "liked": false,
      "alt": ""
    },
    {
      "id": 29843710,
      "width": 2791,
      "height": 3489,
      "url": "https://www.pexels.com/photo/charming-european-townhouses-with-colorful-facades-29843710/",
      "photographer": "Oleg Kuzma",
      "photographer_url": "https://www.pexels.com/@oleg-kuzma-2147635390",
      "photographer_id": 2147635390,
      "avg_color": "#8B827B",
      "src": {
        "original": "https://images.pexels.com/photos/29843710/pexels-photo-29843710.jpeg",
        "large2x": "https://images.pexels.com/photos/29843710/pexels-photo-29843710.jpeg?auto=compress\u0026cs=tinysrgb\u0026dpr=2\u0026h=650\u0026w=940",
        "large": "https://images.pexels.com/photos/29843710/pexels-photo-29843710.jpeg?auto=compress\u0026cs=tinysrgb\u0026h=650\u0026w=940",
        "medium": "https://images.pexels.com/photos/29843710/pexels-photo-29843710.jpeg?auto=compress\u0026cs=tinysrgb\u0026h=350",
        "small": "https://images.pexels.com/photos/29843710/pexels-photo-29843710.jpeg?auto=compress\u0026cs=tinysrgb\u0026h=130",
        "portrait": "https://images.pexels.com/photos/29843710/pexels-photo-29843710.jpeg?auto=compress\u0026cs=tinysrgb\u0026fit=crop\u0026h=1200\u0026w=800",
        "landscape": "https://images.pexels.com/photos/29843710/pexels-photo-29843710.jpeg?auto=compress\u0026cs=tinysrgb\u0026fit=crop\u0026h=627\u0026w=1200",
        "tiny": "https://images.pexels.com/photos/29843710/pexels-photo-29843710.jpeg?auto=compress\u0026cs=tinysrgb\u0026dpr=1\u0026fit=crop\u0026h=200\u0026w=280"
      },
      "liked": false,
      "alt": "Colorful European-style townhouses with classic architecture under a clear sky. Vibrant and picturesque cityscape."
    },
    {
      "id": 29832037,
      "width": 3680,
      "height": 4594,
      "url": "https://www.pexels.com/photo/indonesian-muslims-praying-in-modern-mosque-interior-29832037/",
      "photographer": "Mohammed Alim",
      "photographer_url": "https://www.pexels.com/@apyfz",
      "photographer_id": 2147810513,
      "avg_color": "#A6AEB0",
      "src": {
        "original": "https://images.pexels.com/photos/29832037/pexels-photo-29832037.jpeg",
        "large2x": "https://images.pexels.com/photos/29832037/pexels-photo-29832037.jpeg?auto=compress\u0026cs=tinysrgb\u0026dpr=2\u0026h=650\u0026w=940",
        "large": "https://images.pexels.com/photos/29832037/pexels-photo-29832037.jpeg?auto=compress\u0026cs=tinysrgb\u0026h=650\u0026w=940",
        "medium": "https://images.pexels.com/photos/29832037/pexels-photo-29832037.jpeg?auto=compress\u0026cs=tinysrgb\u0026h=350",
        "small": "https://images.pexels.com/photos/29832037/pexels-photo-29832037.jpeg?auto=compress\u0026cs=tinysrgb\u0026h=130",
        "portrait": "https://images.pexels.com/photos/29832037/pexels-photo-29832037.jpeg?auto=compress\u0026cs=tinysrgb\u0026fit=crop\u0026h=1200\u0026w=800",
        "landscape": "https://images.pexels.com/photos/29832037/pexels-photo-29832037.jpeg?auto=compress\u0026cs=tinysrgb\u0026fit=crop\u0026h=627\u0026w=1200",
        "tiny": "https://images.pexels.com/photos/29832037/pexels-photo-29832037.jpeg?auto=compress\u0026cs=tinysrgb\u0026dpr=1\u0026fit=crop\u0026h=200\u0026w=280"
      },
      "liked": false,
      "alt": ""
    },
    {
      "id": 29833367,
      "width": 3713,
      "height": 2471,
      "url": "https://www.pexels.com/photo/intricate-green-geometric-ceiling-architecture-29833367/",
      "photographer": "Mohammed Alim",
      "photographer_url": "https://www.pexels.com/@apyfz",
      "photographer_id": 2147810513,
      "avg_color": "#4A8583",
      "src": {
        "original": "https://images.pexels.com/photos/29833367/pexels-photo-29833367.jpeg",
        "large2x": "https://images.pexels.com/photos/29833367/pexels-photo-29833367.jpeg?auto=compress\u0026cs=tinysrgb\u0026dpr=2\u0026h=650\u0026w=940",
        "large": "https://images.pexels.com/photos/29833367/pexels-photo-29833367.jpeg?auto=compress\u0026cs=tinysrgb\u0026h=650\u0026w=940",
        "medium": "https://images.pexels.com/photos/29833367/pexels-photo-29833367.jpeg?auto=compress\u0026cs=tinysrgb\u0026h=350",
        "small": "https://images.pexels.com/photos/29833367/pexels-photo-29833367.jpeg?auto=compress\u0026cs=tinysrgb\u0026h=130",
        "portrait": "https://images.pexels.com/photos/29833367/pexels-photo-29833367.jpeg?auto=compress\u0026cs=tinysrgb\u0026fit=crop\u0026h=1200\u0026w=800",
        "landscape": "https://images.pexels.com/photos/29833367/pexels-photo-29833367.jpeg?auto=compress\u0026cs=tinysrgb\u0026fit=crop\u0026h=627\u0026w=1200",
        "tiny": "https://images.pexels.com/photos/29833367/pexels-photo-29833367.jpeg?auto=compress\u0026cs=tinysrgb\u0026dpr=1\u0026fit=crop\u0026h=200\u0026w=280"
      },
      "liked": false,
      "alt": "Free stock photo of eid, indonesia, islam"
    },
    {
      "id": 29832930,
      "width": 4721,
      "height": 7081,
      "url": "https://www.pexels.com/photo/young-woman-relaxing-on-subway-escalator-29832930/",
      "photographer": "Mert Coşkun",
      "photographer_url": "https://www.pexels.com/@mert-coskun-386432351",
      "photographer_id": 386432351,
      "avg_color": "#58563F",
      "src": {
        "original": "https://images.pexels.com/photos/29832930/pexels-photo-29832930.jpeg",
        "large2x": "https://images.pexels.com/photos/29832930/pexels-photo-29832930.jpeg?auto=compress\u0026cs=tinysrgb\u0026dpr=2\u0026h=650\u0026w=940",
        "large": "https://images.pexels.com/photos/29832930/pexels-photo-29832930.jpeg?auto=compress\u0026cs=tinysrgb\u0026h=650\u0026w=940",
        "medium": "https://images.pexels.com/photos/29832930/pexels-photo-29832930.jpeg?auto=compress\u0026cs=tinysrgb\u0026h=350",
        "small": "https://images.pexels.com/photos/29832930/pexels-photo-29832930.jpeg?auto=compress\u0026cs=tinysrgb\u0026h=130",
        "portrait": "https://images.pexels.com/photos/29832930/pexels-photo-29832930.jpeg?auto=compress\u0026cs=tinysrgb\u0026fit=crop\u0026h=1200\u0026w=800",
        "landscape": "https://images.pexels.com/photos/29832930/pexels-photo-29832930.jpeg?auto=compress\u0026cs=tinysrgb\u0026fit=crop\u0026h=627\u0026w=1200",
        "tiny": "https://images.pexels.com/photos/29832930/pexels-photo-29832930.jpeg?auto=compress\u0026cs=tinysrgb\u0026dpr=1\u0026fit=crop\u0026h=200\u0026w=280"
      },
      "liked": false,
      "alt": "Smiling woman seated on an escalator in a subway station, expressing urban youth culture."
    }
  ],
  "total_results": 8000,
  "next_page": "https://api.pexels.com/v1/curated/?page=2\u0026per_page=15"
}
